<svg width="96" height="48" viewBox="0 0 96 48" fill="none" xmlns="http://www.w3.org/2000/svg">
<path d="M95.0291 16.2849C95.565 16.2849 96 16.7262 96 17.2743V47.0106C96 47.5568 95.565 48 95.0291 48H0.970913C0.434969 48 0 47.5568 0 47.0106V17.2743C0 16.7282 0.434969 16.2849 0.970913 16.2849H95.0291ZM94.0582 46.0213H94.0601V18.2637H92.7455V27.718C92.7455 28.2642 92.3105 28.7074 91.7746 28.7074C91.2386 28.7074 90.8037 28.2642 90.8037 27.718V18.2637H85.4481V24.1781C85.4481 24.7242 85.0131 25.1674 84.4772 25.1674C83.9413 25.1674 83.5063 24.7242 83.5063 24.1781V18.2637H78.1527V24.1781C78.1527 24.7242 77.7177 25.1674 77.1818 25.1674C76.6458 25.1674 76.2109 24.7242 76.2109 24.1781V18.2637H70.8572V24.1781C70.8572 24.7242 70.4223 25.1674 69.8863 25.1674C69.3504 25.1674 68.9154 24.7242 68.9154 24.1781V18.2637H63.5618V27.718C63.5618 28.2642 63.1268 28.7074 62.5909 28.7074C62.0549 28.7074 61.62 28.2642 61.62 27.718V18.2637H56.2664V24.1781C56.2664 24.7242 55.8314 25.1674 55.2954 25.1674C54.7595 25.1674 54.3245 24.7242 54.3245 24.1781V18.2637H48.9709V24.1781C48.9709 24.7242 48.5359 25.1674 48 25.1674C47.4641 25.1674 47.0291 24.7242 47.0291 24.1781V18.2637H41.6755V24.1781C41.6755 24.7242 41.2405 25.1674 40.7046 25.1674C40.1686 25.1674 39.7336 24.7242 39.7336 24.1781V18.2637H34.38V27.718C34.38 28.2642 33.9451 28.7074 33.4091 28.7074C32.8732 28.7074 32.4382 28.2642 32.4382 27.718V18.2637H27.0846V24.1781C27.0846 24.7242 26.6496 25.1674 26.1137 25.1674C25.5777 25.1674 25.1428 24.7242 25.1428 24.1781V18.2637H19.7892V24.1781C19.7892 24.7242 19.3542 25.1674 18.8182 25.1674C18.2823 25.1674 17.8473 24.7242 17.8473 24.1781V18.2637H12.4937V24.1781C12.4937 24.7242 12.0587 25.1674 11.5228 25.1674C10.9869 25.1674 10.5519 24.7242 10.5519 24.1781V18.2637H5.19827V27.718C5.19827 28.2642 4.7633 28.7074 4.22736 28.7074C3.69141 28.7074 3.25644 28.2642 3.25644 27.718V18.2637H1.94183V46.0213H94.0582ZM95.0291 0C95.565 0 96 0.443235 96 0.989365V8.77962C96 9.32575 95.565 9.76898 95.0291 9.76898C94.4931 9.76898 94.0582 9.32575 94.0582 8.77962V5.87287H1.94183V8.77962C1.94183 9.32575 1.50686 9.76898 0.970913 9.76898C0.434969 9.76898 0 9.32575 0 8.77962V0.991344C0 0.445215 0.434969 0.00197983 0.970913 0.00197983C1.50686 0.00197983 1.94183 0.445215 1.94183 0.991344V3.89414H94.0582V0.989365C94.0582 0.443235 94.4931 0 95.0291 0Z" fill="#8A1541"/>
</svg>
