<svg width="20" height="20" viewBox="0 0 20 20" fill="none" xmlns="http://www.w3.org/2000/svg">
<path fill-rule="evenodd" clip-rule="evenodd" d="M1.60397 8.07755C0.442692 5.97218 0 4.27489 0 3.12849C0 1.98209 0.281662 1.65329 0.567471 1.38766C0.85328 1.12203 2.14208 0.327443 2.36167 0.179255C2.58126 0.0310676 3.41937 -0.256918 3.94496 0.499148C4.47054 1.25521 5.46029 2.77324 6.14266 3.78168C7.21343 5.21007 6.36037 5.8371 6.08483 6.21293C5.57779 6.9045 5.28584 7.07508 5.28584 7.92426C5.28584 8.77345 7.65908 11.186 8.22655 11.7805C8.78971 12.3704 11.1544 14.4434 11.8872 14.5542C12.6251 14.6659 13.6129 13.8846 13.823 13.6865C14.8914 12.8662 15.4945 13.4881 15.9867 13.7585C16.4788 14.0288 18.7024 15.4144 19.3915 15.8814C20.04 16.3485 19.9995 17.0703 19.9995 17.0703C19.9995 17.0703 18.6619 19.1933 18.4998 19.448C18.2971 19.7452 17.8107 20 16.7163 20C15.6219 20 14.4525 19.8001 11.6736 18.2718C9.39975 17.0213 7.23214 15.063 6.0972 13.9166C4.92172 12.7702 2.93047 10.4825 1.60397 8.07755Z" fill="#D58D85"/>
</svg>
